So You Want to Merge EPA Data Using the Federal Registry Service?
…
Relevant for our purposes here, REGISTRY_ID is the FRS identifier, PGM_SYS_ACRNM is the acronym for a regulatory program, PGM_SYS_ID is the facility identifier for that program.

Doing a quick count shows that there are 41 different regulatory programs in the file!

env_interest %>%
  count(PGM_SYS_ACRNM) %>%
  arrange(desc(n))

# A tibble: 41 x 2
   PGM_SYS_ACRNM      n
   <chr>          <int>
 1 TX-TCEQ ACR   165635
 2 NPDES         120956
 3 RCRAINFO       43410
 4 SFDW           33372
 5 ICIS           14859
 6 EIS             7892
 7 OSHA-OIS        6902
 8 AIR             6582
 9 AIRS/AFS        5501
10 TRIS            4661
# ... with 31 more rows
…
